<svg style="position: absolute; width: 0; height: 0;" width="0" height="0" version="1.1" xmlns="http://www.w3.org/2000/svg" xmlns:xlink="http://www.w3.org/1999/xlink">
<defs>
<symbol id="icon--web-love" viewBox="0 0 37 32">
<title>web-love</title>
<path class="path1" d="M4.36 0.002c-2.477 0.002-4.353 1.848-4.356 4.311-0.008 7.655-0.006 15.309 0.005 22.964 0 0.437 0.063 0.89 0.188 1.309 0.536 1.799 2.142 3 4.030 3.015 2.053 0.017 4.106 0.004 6.159 0.004 7.211 0.001 14.422 0 21.633 0.002 0.706 0 1.393-0.096 2.026-0.421 1.605-0.823 2.42-2.153 2.423-3.949 0.009-7.604 0.001-15.208 0.005-22.812 0-2.563-1.834-4.42-4.397-4.422-4.6-0.003-9.201-0.001-13.802-0.001v-0.001c-2.823 0-5.647-0.001-8.47-0.001-1.815 0-3.63 0-5.445 0.002v0zM30.228 3.61c0-0.776 0.628-1.404 1.404-1.404s1.404 0.628 1.404 1.404c0 0.775-0.628 1.404-1.404 1.404s-1.404-0.628-1.404-1.404v0zM25.386 3.61c0-0.776 0.628-1.404 1.404-1.404s1.404 0.628 1.404 1.404c0 0.775-0.628 1.404-1.404 1.404s-1.404-0.628-1.404-1.404v0zM20.544 3.61c0.001-0.776 0.629-1.404 1.404-1.404s1.404 0.628 1.404 1.404c0 0.775-0.629 1.404-1.404 1.404s-1.404-0.628-1.404-1.404v0zM4.394 29.203c-1.24 0-1.99-0.748-1.99-1.985-0.001-6.525-0-13.050 0-19.575 0-0.111 0.011-0.222 0.018-0.361h31.649v0.413c0 6.512 0 13.025-0 19.537 0 1.202-0.768 1.971-1.968 1.971-4.618 0-9.237 0-13.855 0s-9.236 0-13.854-0v0zM18.978 13.661l-0.741 0.741-0.741-0.741c-1.416-1.416-3.713-1.416-5.13 0s-1.416 3.713 0 5.13l5.871 5.871 5.872-5.871c1.416-1.417 1.416-3.714-0.001-5.13-0.708-0.708-1.636-1.062-2.564-1.062s-1.857 0.354-2.565 1.062v0z"></path>
</symbol>
<symbol id="icon--infinity" viewBox="0 0 57 32">
<title>infinity</title>
<path class="path1" d="M15.369 0.181c-8.938 0.021-14.943 6.117-14.943 15.167-0.002 8.21 6.537 14.871 14.882 15.166 8.724 0.318 12.010-7.277 14.904-13.971 2.667-6.182 5.191-12.018 11.387-12.251 2.8-0.101 5.475 0.947 7.561 2.957 2.272 2.189 3.576 5.276 3.574 8.47 0 6.225-4.853 11.138-11.289 11.425-2.511 0.099-4.415-0.923-5.751-2.063l2.086-1.818-0.008-0.173-4.428-0.851c-0.008-0.012-0.017-0.032-0.023-0.038l-0.047 0.025-3.444-0.661 0.422 8.074 0.175 0.034 2.425-2.114c1.819 1.694 4.53 3.337 8.206 3.337 0.182 0 0.369-0.005 0.554-0.015 8.337-0.367 14.867-7.030 14.867-15.163 0.002-4.205-1.719-8.273-4.72-11.164-2.826-2.721-6.475-4.135-10.299-4.002-8.557 0.317-11.814 7.856-14.688 14.506-3.207 7.424-5.548 11.929-11.333 11.714-6.321-0.225-11.272-5.24-11.272-11.424 0-5.509 2.947-11.405 11.21-11.425 2.287 0.008 4.226 1.227 5.629 2.494l-2.13 1.922 0.016 0.173 7.962 1.387-0.559-8.067-0.173-0.031-2.319 2.093c-1.933-1.827-4.794-3.715-8.407-3.713-0.005 0-0.012-0.001-0.018-0.001-0.003 0-0.006 0-0.009 0.001v0z"></path>
</symbol>
<symbol id="icon--arrow" viewBox="0 0 30 32">
<title>arrow</title>
<path class="path1" d="M12.332 0.555l-3.087 3.086c-0.741 0.741-0.738 1.933 0 2.671l5.318 5.318h-12.674c-1.050 0-1.889 0.845-1.889 1.888v4.365c0 1.048 0.846 1.889 1.889 1.889h13.043l-5.687 5.687c-0.738 0.737-0.741 1.929 0 2.67l3.087 3.086c0.737 0.738 1.928 0.743 2.67 0l13.994-13.994c0.369-0.369 0.554-0.851 0.555-1.335v-0.002c-0.001-0.483-0.186-0.966-0.555-1.335l-13.994-13.994c-0.371-0.371-0.854-0.555-1.336-0.555s-0.966 0.185-1.335 0.555v0z"></path>
</symbol>
</defs>
</svg>
